[
  { "bar1": "1.27", "time": "18-Apr-2018,17:00", "bar": "1.55" },
  { "bar1": "1.37", "time": "18-Apr-2018,17:05", "bar": "1.68" },
  { "bar1": "1.3", "time": "18-Apr-2018,17:10", "bar": "1.49" },
  { "bar1": "1.3", "time": "18-Apr-2018,17:15", "bar": "1.6" },
  { "bar1": "1.24", "time": "18-Apr-2018,17:20", "bar": "1.64" },
  { "bar1": "1.28", "time": "18-Apr-2018,17:25", "bar": "1.51" },
  { "bar1": "1.23", "time": "18-Apr-2018,17:30", "bar": "1.46" },
  { "bar1": "1.24", "time": "18-Apr-2018,17:35", "bar": "1.48" },
  { "bar1": "1.23", "time": "18-Apr-2018,17:40", "bar": "1.46" },
  { "bar1": "1.23", "time": "18-Apr-2018,17:45", "bar": "1.44" },
  { "bar1": "1.32", "time": "18-Apr-2018,17:50", "bar": "1.5" },
  { "bar1": "1.23", "time": "18-Apr-2018,17:55", "bar": "3.16" },
  { "bar1": "1.2", "time": "18-Apr-2018,18:00", "bar": "3.91" },
  { "bar1": "1.33", "time": "18-Apr-2018,18:05", "bar": "4.06" },
  { "bar1": "1.21", "time": "18-Apr-2018,18:10", "bar": "3.88" },
  { "bar1": "1.22", "time": "18-Apr-2018,18:15", "bar": "3.84" },
  { "bar1": "1.23", "time": "18-Apr-2018,18:20", "bar": "3.34" },
  { "bar1": "1.19", "time": "18-Apr-2018,18:25", "bar": "2.07" },
  { "bar1": "1.17", "time": "18-Apr-2018,18:30", "bar": "1.45" },
  { "bar1": "1.18", "time": "18-Apr-2018,18:35", "bar": "1.4" },
  { "bar1": "1.19", "time": "18-Apr-2018,18:40", "bar": "1.4" },
  { "bar1": "1.16", "time": "18-Apr-2018,18:45", "bar": "1.41" },
  { "bar1": "1.16", "time": "18-Apr-2018,18:50" },
  { "bar1": "1.15", "time": "18-Apr-2018,18:55", "bar": "1.39" },
  { "bar1": "1.16", "time": "18-Apr-2018,19:00", "bar": "1.45" },
  { "bar1": "1.26", "time": "18-Apr-2018,19:05", "bar": "1.64" },
  { "bar1": "1.15", "time": "18-Apr-2018,19:10", "bar": "1.37" },
  { "bar1": "1.18", "time": "18-Apr-2018,19:15", "bar": "1.41" },
  { "bar1": "1.17", "time": "18-Apr-2018,19:20", "bar": "1.5" },
  { "bar1": "1.16", "time": "18-Apr-2018,19:25", "bar": "1.36" },
  { "bar1": "1.17", "time": "18-Apr-2018,19:30", "bar": "1.37" },
  { "bar1": "1.1", "time": "18-Apr-2018,19:35", "bar": "1.32" },
  { "bar1": "1.27", "time": "18-Apr-2018,19:40", "bar": "1.39" },
  { "bar1": "1.24", "time": "18-Apr-2018,19:45", "bar": "1.33" },
  { "bar1": "1.21", "time": "18-Apr-2018,19:50", "bar": "1.34" },
  { "bar1": "1.21", "time": "18-Apr-2018,19:55", "bar": "1.32" },
  { "bar1": "1.4", "time": "18-Apr-2018,20:00", "bar": "1.36" },
  { "bar1": "1.33", "time": "18-Apr-2018,20:05", "bar": "1.52" },
  { "bar1": "1.21", "time": "18-Apr-2018,20:10", "bar": "1.43" },
  { "bar1": "1.23", "time": "18-Apr-2018,20:15", "bar": "1.46" },
  { "bar1": "1.27", "time": "18-Apr-2018,20:20", "bar": "1.44" },
  { "bar1": "1.19", "time": "18-Apr-2018,20:25", "bar": "1.38" },
  { "bar1": "1.12", "time": "18-Apr-2018,20:30", "bar": "1.33" },
  { "bar1": "1.13", "time": "18-Apr-2018,20:35", "bar": "1.51" },
  { "bar1": "1.1", "time": "18-Apr-2018,20:40", "bar": "1.46" },
  { "bar1": "1.12", "time": "18-Apr-2018,20:45", "bar": "1.29" },
  { "bar1": "1.12", "time": "18-Apr-2018,20:50", "bar": "1.47" },
  { "bar1": "1.1", "time": "18-Apr-2018,20:55", "bar": "1.29" },
  { "bar1": "1.1", "time": "18-Apr-2018,21:00", "bar": "1.36" },
  { "bar1": "1.22", "time": "18-Apr-2018,21:05", "bar": "1.51" },
  { "bar1": "1.08", "time": "18-Apr-2018,21:10", "bar": "1.31" },
  { "bar1": "1.1", "time": "18-Apr-2018,21:15", "bar": "1.32" },
  { "bar1": "1.13", "time": "18-Apr-2018,21:20", "bar": "1.52" },
  { "bar1": "1.08", "time": "18-Apr-2018,21:25", "bar": "1.4" },
  { "bar1": "1.08", "time": "18-Apr-2018,21:30", "bar": "1.29" },
  { "bar1": "1.09", "time": "18-Apr-2018,21:35", "bar": "1.26" },
  { "bar1": "1.06", "time": "18-Apr-2018,21:40", "bar": "1.32" },
  { "bar1": "1.05", "time": "18-Apr-2018,21:45", "bar": "1.29" },
  { "bar1": "1.06", "time": "18-Apr-2018,21:50", "bar": "1.3" },
  { "bar1": "1.06", "time": "18-Apr-2018,21:55", "bar": "1.28" },
  { "bar1": "1.08", "time": "18-Apr-2018,22:00", "bar": "1.33" },
  { "bar1": "1.2", "time": "18-Apr-2018,22:05", "bar": "1.49" },
  { "bar1": "1.07", "time": "18-Apr-2018,22:10", "bar": "1.26" },
  { "bar1": "1.05", "time": "18-Apr-2018,22:15", "bar": "1.32" },
  { "bar1": "1.06", "time": "18-Apr-2018,22:20", "bar": "1.29" },
  { "bar1": "1.02", "time": "18-Apr-2018,22:25", "bar": "1.2" },
  { "bar1": "1.01", "time": "18-Apr-2018,22:30" },
  { "bar1": "1.03", "time": "18-Apr-2018,22:35", "bar": "1.23" },
  { "bar1": "1", "time": "18-Apr-2018,22:40", "bar": "1.17" },
  { "bar1": "1.01", "time": "18-Apr-2018,22:45", "bar": "1.21" },
  { "bar1": "1", "time": "18-Apr-2018,22:50", "bar": "1.21" },
  { "bar1": "0.98", "time": "18-Apr-2018,22:55", "bar": "1.28" },
  { "bar1": "1.01", "time": "18-Apr-2018,23:00", "bar": "1.21" },
  { "bar1": "1.07", "time": "18-Apr-2018,23:05", "bar": "1.32" },
  { "bar1": "0.99", "time": "18-Apr-2018,23:10", "bar": "1.19" },
  { "bar1": "0.97", "time": "18-Apr-2018,23:15", "bar": "1.19" },
  { "bar1": "0.99", "time": "18-Apr-2018,23:20", "bar": "1.23" },
  { "bar1": "0.96", "time": "18-Apr-2018,23:25", "bar": "1.17" },
  { "bar1": "0.96", "time": "18-Apr-2018,23:30", "bar": "1.1" },
  { "bar1": "0.94", "time": "18-Apr-2018,23:35", "bar": "1.12" },
  { "bar1": "0.93", "time": "18-Apr-2018,23:40", "bar": "1.13" },
  { "bar1": "0.91", "time": "18-Apr-2018,23:45", "bar": "1.08" },
  { "bar1": "0.93", "time": "18-Apr-2018,23:50", "bar": "1.11" },
  { "bar1": "0.91", "time": "18-Apr-2018,23:55", "bar": "1.13" },
  { "bar1": "0.95", "time": "19-Apr-2018,00:00", "bar": "1.22" },
  { "bar1": "1.04", "time": "19-Apr-2018,00:05", "bar": "1.3" },
  { "bar1": "0.9", "time": "19-Apr-2018,00:10", "bar": "1.15" },
  { "bar1": "0.9", "time": "19-Apr-2018,00:15", "bar": "1.21" },
  { "bar1": "0.89", "time": "19-Apr-2018,00:20", "bar": "1.07" },
  { "bar1": "0.87", "time": "19-Apr-2018,00:25", "bar": "1.04" },
  { "bar1": "0.86", "time": "19-Apr-2018,00:30", "bar": "1.02" },
  { "bar1": "0.84", "time": "19-Apr-2018,00:35", "bar": "1.02" },
  { "bar1": "0.84", "time": "19-Apr-2018,00:40", "bar": "1.01" },
  { "bar1": "0.83", "time": "19-Apr-2018,00:45", "bar": "0.99" },
  { "bar1": "0.83", "time": "19-Apr-2018,00:50", "bar": "1" },
  { "bar1": "0.84", "time": "19-Apr-2018,00:55", "bar": "1" },
  { "bar1": "0.84", "time": "19-Apr-2018,01:00", "bar": "1.02" },
  { "bar1": "0.96", "time": "19-Apr-2018,01:05", "bar": "1.23" },
  { "bar1": "0.9", "time": "19-Apr-2018,01:10", "bar": "1.1" },
  { "bar1": "0.84", "time": "19-Apr-2018,01:15", "bar": "1.06" },
  { "bar1": "0.86", "time": "19-Apr-2018,01:20", "bar": "1.06" },
  { "bar1": "0.81", "time": "19-Apr-2018,01:25", "bar": "0.99" },
  { "bar1": "0.82", "time": "19-Apr-2018,01:30", "bar": "0.98" },
  { "bar1": "0.81", "time": "19-Apr-2018,01:35", "bar": "1.02" },
  { "bar1": "0.82", "time": "19-Apr-2018,01:40", "bar": "1.02" },
  { "bar1": "0.8", "time": "19-Apr-2018,01:45", "bar": "0.99" },
  { "bar1": "0.81", "time": "19-Apr-2018,01:50", "bar": "0.95" },
  { "bar1": "0.81", "time": "19-Apr-2018,01:55", "bar": "0.95" },
  { "bar1": "0.86", "time": "19-Apr-2018,02:00", "bar": "1.05" },
  { "bar1": "0.98", "time": "19-Apr-2018,02:05", "bar": "1.35" },
  { "bar1": "0.9", "time": "19-Apr-2018,02:10", "bar": "1.11" },
  { "bar1": "0.91", "time": "19-Apr-2018,02:15", "bar": "1.05" },
  { "bar1": "0.96", "time": "19-Apr-2018,02:20", "bar": "1.29" },
  { "bar1": "0.91", "time": "19-Apr-2018,02:25", "bar": "1.31" },
  { "bar1": "0.86", "time": "19-Apr-2018,02:30", "bar": "1.17" },
  { "bar1": "0.87", "time": "19-Apr-2018,02:35", "bar": "1.04" },
  { "bar1": "0.87", "time": "19-Apr-2018,02:40", "bar": "1.11" },
  { "bar1": "0.88", "time": "19-Apr-2018,02:45", "bar": "1.09" },
  { "bar1": "0.84", "time": "19-Apr-2018,02:50", "bar": "1.03" },
  { "bar1": "0.82", "time": "19-Apr-2018,02:55", "bar": "1" },
  { "bar1": "0.87", "time": "19-Apr-2018,03:00", "bar": "1.07" },
  { "bar1": "0.99", "time": "19-Apr-2018,03:05", "bar": "1.26" },
  { "bar1": "0.87", "time": "19-Apr-2018,03:10", "bar": "1.08" },
  { "bar1": "0.85", "time": "19-Apr-2018,03:15", "bar": "1.03" },
  { "bar1": "0.9", "time": "19-Apr-2018,03:20", "bar": "1.1" },
  { "bar1": "0.84", "time": "19-Apr-2018,03:25", "bar": "1.02" },
  { "bar1": "0.86", "time": "19-Apr-2018,03:30", "bar": "1.06" },
  { "bar1": "0.85", "time": "19-Apr-2018,03:35", "bar": "1.04" },
  { "bar1": "0.84", "time": "19-Apr-2018,03:40", "bar": "1.05" },
  { "bar1": "0.87", "time": "19-Apr-2018,03:45", "bar": "1.09" },
  { "bar1": "0.85", "time": "19-Apr-2018,03:50", "bar": "1.11" },
  { "bar1": "0.84", "time": "19-Apr-2018,03:55", "bar": "1.07" },
  { "bar1": "0.86", "time": "19-Apr-2018,04:00", "bar": "1.09" },
  { "bar1": "0.97", "time": "19-Apr-2018,04:05", "bar": "1.25" },
  { "bar1": "0.88", "time": "19-Apr-2018,04:10", "bar": "1.15" },
  { "bar1": "0.86", "time": "19-Apr-2018,04:15", "bar": "1.1" },
  { "bar1": "0.92", "time": "19-Apr-2018,04:20", "bar": "1.18" },
  { "bar1": "0.88", "time": "19-Apr-2018,04:25", "bar": "1.14" },
  { "bar1": "0.88", "time": "19-Apr-2018,04:30", "bar": "1.13" },
  { "bar1": "0.87", "time": "19-Apr-2018,04:35", "bar": "1.11" },
  { "bar1": "0.89", "time": "19-Apr-2018,04:40", "bar": "1.13" },
  { "bar1": "0.88", "time": "19-Apr-2018,04:45", "bar": "1.1" },
  { "bar1": "0.9", "time": "19-Apr-2018,04:50", "bar": "1.11" },
  { "bar1": "0.92", "time": "19-Apr-2018,04:55", "bar": "1.11" },
  { "bar1": "0.93", "time": "19-Apr-2018,05:00", "bar": "1.11" },
  { "bar1": "1.04", "time": "19-Apr-2018,05:05", "bar": "1.32" },
  { "bar1": "0.96", "time": "19-Apr-2018,05:10", "bar": "1.16" },
  { "bar1": "0.94", "time": "19-Apr-2018,05:15", "bar": "1.15" },
  { "bar1": "0.96", "time": "19-Apr-2018,05:20", "bar": "1.2" },
  { "bar1": "0.97", "time": "19-Apr-2018,05:25", "bar": "1.43" },
  { "bar1": "0.96", "time": "19-Apr-2018,05:30", "bar": "1.18" },
  { "bar1": "0.98", "time": "19-Apr-2018,05:35", "bar": "1.21" },
  { "bar1": "0.99", "time": "19-Apr-2018,05:40", "bar": "1.2" },
  { "bar1": "1", "time": "19-Apr-2018,05:45", "bar": "1.19" },
  { "bar1": "1.04", "time": "19-Apr-2018,05:50", "bar": "1.21" },
  { "bar1": "1.02", "time": "19-Apr-2018,05:55", "bar": "1.21" },
  { "bar1": "1.04", "time": "19-Apr-2018,06:00", "bar": "1.24" },
  { "bar1": "1.15", "time": "19-Apr-2018,06:05", "bar": "1.44" },
  { "bar1": "1.07", "time": "19-Apr-2018,06:10", "bar": "1.25" },
  { "bar1": "1.07", "time": "19-Apr-2018,06:15", "bar": "1.28" },
  { "bar1": "1.09", "time": "19-Apr-2018,06:20", "bar": "1.28" },
  { "bar1": "1.1", "time": "19-Apr-2018,06:25", "bar": "1.29" },
  { "bar1": "1.54", "time": "19-Apr-2018,06:30", "bar": "1.86" },
  { "bar1": "1.11", "time": "19-Apr-2018,06:35", "bar": "1.32" },
  { "bar1": "1.11", "time": "19-Apr-2018,06:40", "bar": "1.36" },
  { "bar1": "1.1", "time": "19-Apr-2018,06:45", "bar": "1.32" },
  { "bar1": "1.12", "time": "19-Apr-2018,06:50", "bar": "1.34" },
  { "bar1": "2.64", "time": "19-Apr-2018,06:55", "bar": "2.75" },
  { "bar1": "1.54", "time": "19-Apr-2018,07:00", "bar": "1.73" },
  { "bar1": "1.27", "time": "19-Apr-2018,07:05", "bar": "1.57" },
  { "bar1": "1.16", "time": "19-Apr-2018,07:10", "bar": "1.37" },
  { "bar1": "1.16", "time": "19-Apr-2018,07:15", "bar": "1.37" },
  { "bar1": "1.18", "time": "19-Apr-2018,07:20", "bar": "1.44" },
  { "bar1": "1.2", "time": "19-Apr-2018,07:25", "bar": "1.46" },
  { "bar1": "1.2", "time": "19-Apr-2018,07:30", "bar": "1.42" },
  { "bar1": "1.19", "time": "19-Apr-2018,07:35", "bar": "1.43" },
  { "bar1": "1.21", "time": "19-Apr-2018,07:40", "bar": "1.45" },
  { "bar1": "1.2", "time": "19-Apr-2018,07:45", "bar": "1.43" },
  { "bar1": "1.24", "time": "19-Apr-2018,07:50", "bar": "1.44" },
  { "bar1": "1.48", "time": "19-Apr-2018,07:55", "bar": "1.46" },
  { "bar1": "1.67", "time": "19-Apr-2018,08:00", "bar": "1.82" },
  { "bar1": "1.47", "time": "19-Apr-2018,08:05", "bar": "1.68" },
  { "bar1": "1.32", "time": "19-Apr-2018,08:10", "bar": "1.62" },
  { "bar1": "1.47", "time": "19-Apr-2018,08:15", "bar": "1.53" },
  { "bar1": "1.71", "time": "19-Apr-2018,08:20", "bar": "1.71" },
  { "bar1": "1.36", "time": "19-Apr-2018,08:25", "bar": "1.59" },
  { "bar1": "1.37", "time": "19-Apr-2018,08:30", "bar": "1.58" },
  { "bar1": "1.46", "time": "19-Apr-2018,08:35", "bar": "1.83" },
  { "bar1": "1.49", "time": "19-Apr-2018,08:40", "bar": "1.72" },
  { "bar1": "1.45", "time": "19-Apr-2018,08:45", "bar": "1.8" },
  { "bar1": "1.67", "time": "19-Apr-2018,08:50", "bar": "1.8" },
  { "bar1": "1.51", "time": "19-Apr-2018,08:55", "bar": "1.73" },
  { "bar1": "1.54", "time": "19-Apr-2018,09:00", "bar": "1.79" },
  { "bar1": "1.66", "time": "19-Apr-2018,09:05", "bar": "1.98" },
  { "bar1": "1.58", "time": "19-Apr-2018,09:10", "bar": "1.87" },
  { "bar1": "1.53", "time": "19-Apr-2018,09:15", "bar": "1.76" },
  { "bar1": "1.51", "time": "19-Apr-2018,09:20", "bar": "1.79" },
  { "bar1": "1.61", "time": "19-Apr-2018,09:25", "bar": "1.8" },
  { "bar1": "1.55", "time": "19-Apr-2018,09:30", "bar": "1.87" },
  { "bar1": "1.55", "time": "19-Apr-2018,09:35", "bar": "1.92" },
  { "bar1": "1.63", "time": "19-Apr-2018,09:40", "bar": "2.04" },
  { "bar1": "1.82", "time": "19-Apr-2018,09:45", "bar": "1.91" },
  { "bar1": "1.54", "time": "19-Apr-2018,09:50", "bar": "1.98" },
  { "bar1": "1.51", "time": "19-Apr-2018,09:55", "bar": "1.85" },
  { "bar1": "1.53", "time": "19-Apr-2018,10:00", "bar": "1.8" },
  { "bar1": "1.88", "time": "19-Apr-2018,10:05", "bar": "2.37" },
  { "bar1": "1.92", "time": "19-Apr-2018,10:10", "bar": "2.66" },
  { "bar1": "1.97", "time": "19-Apr-2018,10:15", "bar": "2.3" },
  { "bar1": "1.88", "time": "19-Apr-2018,10:20", "bar": "1.82" },
  { "bar1": "1.6", "time": "19-Apr-2018,10:25", "bar": "1.87" },
  { "bar1": "1.54", "time": "19-Apr-2018,10:30", "bar": "1.88" },
  { "bar1": "1.6", "time": "19-Apr-2018,10:35", "bar": "1.82" },
  { "bar1": "1.74", "time": "19-Apr-2018,10:40", "bar": "2.03" },
  { "bar1": "2.26", "time": "19-Apr-2018,10:45", "bar": "2.67" },
  { "bar1": "1.62", "time": "19-Apr-2018,10:50", "bar": "1.9" },
  { "bar1": "1.85", "time": "19-Apr-2018,10:55", "bar": "1.95" },
  { "bar1": "1.61", "time": "19-Apr-2018,11:00", "bar": "1.87" },
  { "bar1": "2.44", "time": "19-Apr-2018,11:05", "bar": "2.81" },
  { "bar1": "2.57", "time": "19-Apr-2018,11:10", "bar": "2.98" },
  { "bar1": "2.45", "time": "19-Apr-2018,11:15", "bar": "2.74" },
  { "bar1": "1.78", "time": "19-Apr-2018,11:20", "bar": "2.03" },
  { "bar1": "1.54", "time": "19-Apr-2018,11:25", "bar": "1.84" },
  { "bar1": "1.49", "time": "19-Apr-2018,11:30", "bar": "1.8" },
  { "bar1": "1.5", "time": "19-Apr-2018,11:35", "bar": "1.88" },
  { "bar1": "1.59", "time": "19-Apr-2018,11:40", "bar": "1.83" },
  { "bar1": "1.56", "time": "19-Apr-2018,11:45", "bar": "1.73" },
  { "bar1": "1.58", "time": "19-Apr-2018,11:50", "bar": "1.71" },
  { "bar1": "1.64", "time": "19-Apr-2018,11:55", "bar": "1.81" },
  { "bar1": "2.38", "time": "19-Apr-2018,12:00", "bar": "2.61" },
  { "bar1": "3.47", "time": "19-Apr-2018,12:05", "bar": "4.53" },
  { "bar1": "2.53", "time": "19-Apr-2018,12:10", "bar": "3.89" },
  { "bar1": "1.83", "time": "19-Apr-2018,12:15", "bar": "3.35" },
  { "bar1": "2.16", "time": "19-Apr-2018,12:20", "bar": "3.72" },
  { "bar1": "2.18", "time": "19-Apr-2018,12:25", "bar": "3.23" },
  { "bar1": "1.4", "time": "19-Apr-2018,12:30", "bar": "1.58" },
  { "bar1": "1.39", "time": "19-Apr-2018,12:35", "bar": "1.53" },
  { "bar1": "1.37", "time": "19-Apr-2018,12:40", "bar": "1.58" },
  { "bar1": "1.4", "time": "19-Apr-2018,12:45", "bar": "1.57" },
  { "bar1": "1.39", "time": "19-Apr-2018,12:50", "bar": "1.62" },
  { "bar1": "1.64", "time": "19-Apr-2018,12:55", "bar": "1.62" },
  { "bar1": "2.15", "time": "19-Apr-2018,13:00", "bar": "2.28" },
  { "bar1": "2.62", "time": "19-Apr-2018,13:05", "bar": "2.84" },
  { "bar1": "2.87", "time": "19-Apr-2018,13:10", "bar": "3.64" },
  { "bar1": "2.31", "time": "19-Apr-2018,13:15", "bar": "3.55" },
  { "bar1": "2.39", "time": "19-Apr-2018,13:20", "bar": "3.55" },
  { "bar1": "2.31", "time": "19-Apr-2018,13:25", "bar": "4.26" },
  { "bar1": "1.83", "time": "19-Apr-2018,13:30", "bar": "4.59" },
  { "bar1": "1.46", "time": "19-Apr-2018,13:35", "bar": "1.97" },
  { "bar1": "1.55", "time": "19-Apr-2018,13:40", "bar": "1.99" },
  { "bar1": "1.53", "time": "19-Apr-2018,13:45", "bar": "1.89" },
  { "bar1": "1.46", "time": "19-Apr-2018,13:50", "bar": "1.78" },
  { "bar1": "1.46", "time": "19-Apr-2018,13:55", "bar": "1.68" },
  { "bar1": "1.48", "time": "19-Apr-2018,14:00", "bar": "1.72" },
  { "bar1": "1.64", "time": "19-Apr-2018,14:05", "bar": "2.01" },
  { "bar1": "1.62", "time": "19-Apr-2018,14:10", "bar": "1.89" },
  { "bar1": "1.56", "time": "19-Apr-2018,14:15", "bar": "1.82" },
  { "bar1": "1.49", "time": "19-Apr-2018,14:20", "bar": "1.81" },
  { "bar1": "1.54", "time": "19-Apr-2018,14:25", "bar": "1.89" },
  { "bar1": "1.48", "time": "19-Apr-2018,14:30", "bar": "2.02" },
  { "bar1": "1.5", "time": "19-Apr-2018,14:35", "bar": "1.93" },
  { "bar1": "1.46", "time": "19-Apr-2018,14:40", "bar": "1.77" },
  { "bar1": "1.41", "time": "19-Apr-2018,14:45", "bar": "1.83" },
  { "bar1": "1.44", "time": "19-Apr-2018,14:50", "bar": "1.82" },
  { "bar1": "1.4", "time": "19-Apr-2018,14:55", "bar": "1.77" },
  { "bar1": "1.41", "time": "19-Apr-2018,15:00", "bar": "1.98" },
  { "bar1": "1.5", "time": "19-Apr-2018,15:05", "bar": "2.01" },
  { "bar1": "1.52", "time": "19-Apr-2018,15:10", "bar": "1.84" },
  { "bar1": "2", "time": "19-Apr-2018,15:15", "bar": "2.28" },
  { "bar1": "1.43", "time": "19-Apr-2018,15:20", "bar": "2.16" },
  { "bar1": "1.4", "time": "19-Apr-2018,15:25", "bar": "2.02" },
  { "bar1": "1.38", "time": "19-Apr-2018,15:30", "bar": "1.68" },
  { "bar1": "1.37", "time": "19-Apr-2018,15:35", "bar": "1.7" },
  { "bar1": "1.36", "time": "19-Apr-2018,15:40", "bar": "1.74" },
  { "bar1": "1.35", "time": "19-Apr-2018,15:45", "bar": "1.74" },
  { "bar1": "1.3", "time": "19-Apr-2018,15:50", "bar": "1.6" },
  { "bar1": "1.36", "time": "19-Apr-2018,15:55", "bar": "1.77" },
  { "bar1": "1.37", "time": "19-Apr-2018,16:00", "bar": "1.72" },
  { "bar1": "1.42", "time": "19-Apr-2018,16:05", "bar": "1.89" },
  { "bar1": "1.31", "time": "19-Apr-2018,16:10", "bar": "1.73" },
  { "bar1": "1.35", "time": "19-Apr-2018,16:15", "bar": "1.72" },
  { "bar1": "1.34", "time": "19-Apr-2018,16:20", "bar": "1.73" },
  { "bar1": "1.31", "time": "19-Apr-2018,16:25", "bar": "1.68" },
  { "bar1": "1.42", "time": "19-Apr-2018,16:30", "bar": "1.76" },
  { "bar1": "1.37", "time": "19-Apr-2018,16:35", "bar": "1.72" },
  { "bar1": "1.42", "time": "19-Apr-2018,16:40", "bar": "1.75" },
  { "bar1": "1.52", "time": "19-Apr-2018,16:45", "bar": "1.9" },
  { "bar1": "1.32", "time": "19-Apr-2018,16:50", "bar": "1.63" },
  { "bar1": "1.35", "time": "19-Apr-2018,16:55", "bar": "1.7" },
  { "bar1": "1.37", "time": "19-Apr-2018,17:00", "bar": "1.78" },
  { "bar1": "1.48", "time": "19-Apr-2018,17:05", "bar": "1.91" },
  { "bar1": "1.46", "time": "19-Apr-2018,17:10", "bar": "1.69" },
  { "bar1": "1.59", "time": "19-Apr-2018,17:15", "bar": "1.74" },
  { "bar1": "1.82", "time": "19-Apr-2018,17:20", "bar": "1.71" },
  { "bar1": "1.78", "time": "19-Apr-2018,17:25", "bar": "1.74" },
  { "bar1": "1.66", "time": "19-Apr-2018,17:30", "bar": "1.6" },
  { "bar1": "1.56", "time": "19-Apr-2018,17:35", "bar": "1.66" },
  { "bar1": "1.26", "time": "19-Apr-2018,17:40", "bar": "1.6" },
  { "bar1": "1.26", "time": "19-Apr-2018,17:45", "bar": "1.63" },
  { "bar1": "1.23", "time": "19-Apr-2018,17:50", "bar": "1.57" },
  { "bar1": "1.19", "time": "19-Apr-2018,17:55", "bar": "1.48" },
  { "bar1": "1.27", "time": "19-Apr-2018,18:00", "bar": "1.57" },
  { "bar1": "1.79", "time": "19-Apr-2018,18:05", "bar": "1.72" },
  { "bar1": "1.23", "time": "19-Apr-2018,18:10", "bar": "1.53" },
  { "bar1": "1.19", "time": "19-Apr-2018,18:15", "bar": "1.5" },
  { "bar1": "1.21", "time": "19-Apr-2018,18:20", "bar": "1.52" },
  { "bar1": "1.19", "time": "19-Apr-2018,18:25", "bar": "1.48" },
  { "bar1": "1.18", "time": "19-Apr-2018,18:30", "bar": "1.46" },
  { "bar1": "1.17", "time": "19-Apr-2018,18:35", "bar": "1.5" },
  { "bar1": "1.17", "time": "19-Apr-2018,18:40", "bar": "1.49" },
  { "bar1": "1.17", "time": "19-Apr-2018,18:45", "bar": "1.47" },
  { "bar1": "1.18", "time": "19-Apr-2018,18:50", "bar": "1.47" },
  { "bar1": "1.17", "time": "19-Apr-2018,18:55", "bar": "1.53" },
  { "bar1": "1.17", "time": "19-Apr-2018,19:00", "bar": "1.51" },
  { "bar1": "1.28", "time": "19-Apr-2018,19:05", "bar": "1.64" },
  { "bar1": "1.14", "time": "19-Apr-2018,19:10", "bar": "1.37" },
  { "bar1": "1.15", "time": "19-Apr-2018,19:15", "bar": "1.39" },
  { "bar1": "1.14", "time": "19-Apr-2018,19:20", "bar": "1.6" },
  { "bar1": "1.11", "time": "19-Apr-2018,19:25", "bar": "1.36" },
  { "bar1": "1.15", "time": "19-Apr-2018,19:30", "bar": "1.39" },
  { "bar1": "1.11", "time": "19-Apr-2018,19:35" },
  { "bar1": "1.12", "time": "19-Apr-2018,19:40", "bar": "1.32" },
  { "bar1": "1.09", "time": "19-Apr-2018,19:45", "bar": "1.32" },
  { "bar1": "1.09", "time": "19-Apr-2018,19:50", "bar": "1.31" },
  { "bar1": "1.11", "time": "19-Apr-2018,19:55", "bar": "1.29" },
  { "bar1": "1.1", "time": "19-Apr-2018,20:00", "bar": "1.3" },
  { "bar1": "1.47", "time": "19-Apr-2018,20:05", "bar": "1.77" },
  { "bar1": "2.1", "time": "19-Apr-2018,20:10", "bar": "2.32" },
  { "bar1": "1.84", "time": "19-Apr-2018,20:15", "bar": "2.03" },
  { "bar1": "1.25", "time": "19-Apr-2018,20:20", "bar": "1.44" },
  { "bar1": "1.07", "time": "19-Apr-2018,20:25", "bar": "1.29" },
  { "bar1": "1.12", "time": "19-Apr-2018,20:30", "bar": "1.32" },
  { "bar1": "2.33", "time": "19-Apr-2018,20:35", "bar": "2.46" },
  { "bar1": "1.06", "time": "19-Apr-2018,20:40", "bar": "1.28" },
  { "bar1": "1.09", "time": "19-Apr-2018,20:45", "bar": "1.24" },
  { "bar1": "1.05", "time": "19-Apr-2018,20:50", "bar": "1.24" },
  { "bar1": "1.09", "time": "19-Apr-2018,20:55", "bar": "1.33" },
  { "bar1": "0.99", "time": "19-Apr-2018,21:00", "bar": "1.2" },
  { "bar1": "1.06", "time": "19-Apr-2018,21:05", "bar": "1.56" },
  { "bar1": "1.05", "time": "19-Apr-2018,21:10", "bar": "1.26" },
  { "bar1": "1.06", "time": "19-Apr-2018,21:15", "bar": "1.27" },
  { "bar1": "1.03", "time": "19-Apr-2018,21:20", "bar": "1.28" },
  { "bar1": "1.03", "time": "19-Apr-2018,21:25", "bar": "1.28" },
  { "bar1": "1.09", "time": "19-Apr-2018,21:30", "bar": "1.36" },
  { "bar1": "1.04", "time": "19-Apr-2018,21:35", "bar": "1.34" },
  { "bar1": "1.03", "time": "19-Apr-2018,21:40", "bar": "1.32" },
  { "bar1": "1.02", "time": "19-Apr-2018,21:45", "bar": "1.26" },
  { "bar1": "1.02", "time": "19-Apr-2018,21:50", "bar": "1.29" },
  { "bar1": "1.03", "time": "19-Apr-2018,21:55", "bar": "1.37" },
  { "bar1": "1.05", "time": "19-Apr-2018,22:00", "bar": "1.24" },
  { "bar1": "1.05", "time": "19-Apr-2018,22:05", "bar": "1.26" },
  { "bar1": "1.04", "time": "19-Apr-2018,22:10", "bar": "1.26" },
  { "bar1": "1.03", "time": "19-Apr-2018,22:15", "bar": "1.22" },
  { "bar1": "1.04", "time": "19-Apr-2018,22:20", "bar": "1.23" },
  { "bar1": "1.01", "time": "19-Apr-2018,22:25", "bar": "1.19" },
  { "bar1": "1.11", "time": "19-Apr-2018,22:30", "bar": "1.25" },
  { "bar1": "1.04", "time": "19-Apr-2018,22:35", "bar": "1.26" },
  { "bar1": "1.02", "time": "19-Apr-2018,22:40", "bar": "1.25" },
  { "bar1": "1.02", "time": "19-Apr-2018,22:45", "bar": "1.22" },
  { "bar1": "1.06", "time": "19-Apr-2018,22:50", "bar": "1.2" },
  { "bar1": "1.01", "time": "19-Apr-2018,22:55", "bar": "1.2" },
  { "bar1": "0.99", "time": "19-Apr-2018,23:00", "bar": "1.17" },
  { "bar1": "1.02", "time": "19-Apr-2018,23:05", "bar": "1.19" },
  { "bar1": "0.99", "time": "19-Apr-2018,23:10", "bar": "1.17" },
  { "bar1": "0.98", "time": "19-Apr-2018,23:15", "bar": "1.13" },
  { "bar1": "1", "time": "19-Apr-2018,23:20", "bar": "1.13" },
  { "bar1": "0.96", "time": "19-Apr-2018,23:25", "bar": "1.12" },
  { "bar1": "0.97", "time": "19-Apr-2018,23:30", "bar": "1.12" },
  { "bar1": "0.96", "time": "19-Apr-2018,23:35", "bar": "1.08" },
  { "bar1": "0.91", "time": "19-Apr-2018,23:40", "bar": "1.05" },
  { "bar1": "0.89", "time": "19-Apr-2018,23:50", "bar": "1.02" },
  { "bar1": "0.88", "time": "19-Apr-2018,23:55", "bar": "1" },
  { "bar1": "0.87", "time": "20-Apr-2018,00:00", "bar": "1" },
  { "bar1": "0.88", "time": "20-Apr-2018,00:05", "bar": "0.99" },
  { "bar1": "0.97", "time": "20-Apr-2018,00:10", "bar": "1.03" },
  { "bar1": "0.83", "time": "20-Apr-2018,00:15", "bar": "0.99" },
  { "bar1": "0.85", "time": "20-Apr-2018,00:20", "bar": "0.97" },
  { "bar1": "0.84", "time": "20-Apr-2018,00:25", "bar": "0.99" },
  { "bar1": "0.83", "time": "20-Apr-2018,01:25", "bar": "1" },
  { "bar1": "0.84", "time": "20-Apr-2018,01:30", "bar": "0.98" },
  { "bar1": "0.85", "time": "20-Apr-2018,01:35", "bar": "0.92" },
  { "bar1": "0.83", "time": "20-Apr-2018,01:40", "bar": "0.93" },
  { "bar1": "0.81", "time": "20-Apr-2018,01:45", "bar": "0.9" },
  { "bar1": "0.83", "time": "20-Apr-2018,01:50", "bar": "0.91" },
  { "bar1": "0.82", "time": "20-Apr-2018,01:55", "bar": "0.97" },
  { "bar1": "0.84", "time": "20-Apr-2018,02:00", "bar": "0.98" },
  { "bar1": "0.87", "time": "20-Apr-2018,02:05", "bar": "1.03" },
  { "bar1": "0.98", "time": "20-Apr-2018,02:10", "bar": "1.15" },
  { "bar1": "0.93", "time": "20-Apr-2018,02:15", "bar": "1.1" },
  { "bar1": "0.85", "time": "20-Apr-2018,02:20", "bar": "0.96" },
  { "bar1": "0.85", "time": "20-Apr-2018,02:25", "bar": "0.95" },
  { "bar1": "1.13", "time": "20-Apr-2018,02:30", "bar": "1.25" },
  { "bar1": "1.03", "time": "20-Apr-2018,02:35", "bar": "1.16" },
  { "bar1": "0.85", "time": "20-Apr-2018,02:40", "bar": "0.96" },
  { "bar1": "0.84", "time": "20-Apr-2018,02:45", "bar": "0.95" },
  { "bar1": "0.85", "time": "20-Apr-2018,02:50", "bar": "0.95" },
  { "bar1": "0.87", "time": "20-Apr-2018,02:55", "bar": "1" }
]
